ch,超值购物,c,ab*,0,0
dlb://4f751483-44fe-43b4-a903-21c06e4076e7#byl
ch,精选购物,c,*,0,0
http://ha.wheel.duolebo.com/live.m3u8?p=12d1e502-80da-46a5-ad9a-3b690d72d7ba&c=338914494&m3u8=true
http://hb.wheel.duolebo.com/live.m3u8?p=0429ff98-2f2f-48cd-ae3e-55f876b3c5b9&c=338914494&m3u8=true
ch,风尚购物,c,ab*,0,0
http://s01.cdn-live.duolebo.com/dlbapp03/live02/index.m3u8#fsg
ch,时尚购物,c,ab*,0,0
ssg://u02
ch,家有购物,c,ab#*,0,0	
dlb://0d0501e9-5bd8-4989-9cce-af1e887b193e#jyg
ch,快乐购物,c,ab#*,0,0
dlb://aa5c7c86-7aca-4c62-be2d-dd4207eb39b4#klg
ch,优购物,c,ab#*,0,0
ugw://u01
ugw://u17
ch,家家购物,c,ab*,0,0	
dlb://a1f48b35-150d-4360-95a3-7b513c04b486#jjg
ch,环球购物,c,ab#*,0,0
hqg://c01
ch,好享购物,c,ab*,0,0
dlb://98c6e655-b404-49a9-b8ac-a1dea2d3de6a#hxg
ch,时尚名品汇,c,*,0,0
ssg://u16
ch,家有新品,c,*,0,0
dlb://7cf40d15-7e27-411b-af65-c9012799457c#jyg
ch,优购收藏馆,c,*,0,0
ugw://u20
ch,聚鲨时尚,c,*,0,0
hqg://c13
ch,快乐新品,c,*,0,0
dlb://3f6e16de-63be-48fe-894a-e5327e94c5a3#klg
ch,家家畅销,c,*,0,0
dlb://66125d3f-fd80-4037-b404-97f67a238554#jjg
ch,优购必买好货,c,*,0,0
ugw://u15
ch,每周爆款,c,*,0,0
dlb://22d48250-5c4d-4447-8d1e-97cf204dd278#byl
ch,好享畅销,c,*,0,0
dlb://afe0426a-6fda-4bae-821b-79356c18a6ec#hxg