ch,优购物,c,ad*,0,0
ugw://u01
ch,家有购物,c,bd*,0,0
dlb://8b24f648-1a55-44ff-a232-6920a2c9ed34#jyg
ch,快乐购物,c,ad*,0,0
klg://happigolive33,d07d84aa0a7a45b59a70a57622e1ec95
klg://happigolive11,8e768346411648deb8825acb0fc40c55
ch,家家购物,c,bd*,0,0
dlb://a1f48b35-150d-4360-95a3-7b513c04b486#jjg
ch,南方购物,c,ad*,0,0
dlb://4653bc08-3eac-4638-813d-bf513db68210#nfg
ch,时尚购物,c,bd*,0,0
ssg://u02
ch,聚鲨购物,c,ab*,0,0
hqg://c01
ch,超值购物,c,ad*,0,0
dlb://4f751483-44fe-43b4-a903-21c06e4076e7#byl
ch,好享购物,c,bd*,0,0
dlb://98c6e655-b404-49a9-b8ac-a1dea2d3de6a#hxg
ch,风尚购物,c,ad*,0,0
dlb://95b100c7-1a6b-4daa-ba4c-279d79faf589#fsg
ch,精选爆品,c,bd*,0,0
http://ha.wheel.duolebo.com/live.m3u8?p=12d1e502-80da-46a5-ad9a-3b690d72d7ba&c=338914494&m3u8=true
http://hb.wheel.duolebo.com/live.m3u8?p=0429ff98-2f2f-48cd-ae3e-55f876b3c5b9&c=338914494&m3u8=true