ch,超值购物,c,ab*,0,0
dlb://4f751483-44fe-43b4-a903-21c06e4076e7#byl
ch,精选购物,c,*,0,0
http://ha.wheel.duolebo.com/live.m3u8?p=12d1e502-80da-46a5-ad9a-3b690d72d7ba&c=338914494&m3u8=true
http://hb.wheel.duolebo.com/live.m3u8?p=0429ff98-2f2f-48cd-ae3e-55f876b3c5b9&c=338914494&m3u8=true
ch,风尚购物,c,ab*,0,0
http://s01.cdn-live.duolebo.com/dlbapp03/live02/index.m3u8#fsg
ch,时尚购物,c,ab*,0,0
ssg://u02
ch,快乐购物,c,ab#*,0,0
dlb://aa5c7c86-7aca-4c62-be2d-dd4207eb39b4#klg
ch,家家购物,c,ab*,0,0	
dlb://a1f48b35-150d-4360-95a3-7b513c04b486#jjg
ch,家有购物,c,ab#*,0,0
dlb://0d0501e9-5bd8-4989-9cce-af1e887b193e#jyg
ch,优购物,c,ab#*,0,0
ugw://u01
ugw://u17
ch,好享购物,c,ab*,0,0
dlb://98c6e655-b404-49a9-b8ac-a1dea2d3de6a#hxg
ch,环球购物,c,ab#*,0,0
hqg://c01
ch,优购收藏馆,c,*,0,0
ugw://u20
ch,家有畅销,c,*,0,0
dlb://a70cfc61-f961-4c54-9e61-8f5af0d6f386#jyg
ch,聚鲨精选,c,*,0,0
hqg://c14
ch,优购大牌榜,c,*,0,0
ugw://u17
ch,快乐新品,c,*,0,0
dlb://3f6e16de-63be-48fe-894a-e5327e94c5a3#klg
ch,时尚名品汇,c,*,0,0
ssg://u16
ch,好享上新,c,*,0,0
dlb://1714f958-3c85-4f20-a4af-5d2a2212e42d#hxg
ch,家家品质,c,*,0,0
dlb://b727ebe2-cca6-4e30-81f0-336c6ad80ae0#jjg
ch,聚好货,c,*,0,0	
dlb://bf78cc61-10d5-4d65-a78c-71c5d9d39b19#byl